{
  "cviceni": {
    "version": {
      "global": "<%= version %>",
      "content": 3
    },
    "katalog": [
      "test",
      "public"
    ],
    "language": "cs",
    "slug": "netradicni-mezniky-ceskoslovenskych-dejin",
    "nazev": "Netradiční mezníky československých dějin?",
    "autor": [
      "Petra Švardová"
    ],
    "klicovaSlova": {
      "rvp": [
        "české země ve 20. století"
      ],
      "koncept": [
        "vzpomínková kultura",
        "dějiny ve veřejném prostoru"
      ],
      "b4": [
        "trvání a změna"
      ],
      "historylab": [
        "diskutujeme"
      ]
    },
    "casovaOsa": {
      "roky": [
        1925
      ],
      "epochy": [
        {
          "nazev": "ceska",
          "obdobi": [
            "první Československá republika"
          ]
        },
        {
          "nazev": "svetova",
          "obdobi": [
            ""
          ]
        }
      ]
    },
    "anotace": {
      "ucitel": "Cvičení je zaměřeno na rekapitulaci historických mezníků 20. století v Československu. Na příkladu obnovování a rušení pomníku T. G. Masaryka si žáci uvědomí dopad klíčových událostí na společenský vývoj v zemi. Zároveň se zamyslí nad tím, proč jsou na podstavci pomníku uvedeny jiné letopočty, než které znají z učebnic.",
      "verejna": "Co se skrývá za vyrytými letopočty na památníku T. G. Masaryka? Proč byl tolikrát zrušen a obnoven? Pomocí otázek postupně odkryjete záhadu pomníku ve Valašském Meziříčí a zopakujete si, jakými událostmi si Československo během své existence prošlo."
    },
    "trvani": 30,
    "obtiznost": "střední",
    "funkce": [
      "lupa",
      "text"
    ],
    "pdf": {
      "doporucenyPostup": "netradicni-mezniky-ceskoslovenskych-dejin.pdf"
    },
    "uvodniObrazek": "netradicni-mezniky-ceskoslovenskych-dejin/pic-00-1024h.jpg",
    "id": 21
  },
  "slajd": [
    {
      "zadani": {
        "hlavni": "Prohlédněte si fotografii.",
        "rozsirujici": ""
      },
      "napoveda": {
        "aktivity": [
          "lupa"
        ],
        "text": "ři kliknutí levým tlačítkem do obrazu lupa přiblíží část obrazu ve výřezu."
      },
      "prameny": [
        "netradicni-mezniky-ceskoslovenskych-dejin/pic-00-1024h.jpg"
      ],
      "popisky": [
        "Pomník znázorněný na fotografii je věnován významné osobnosti československých dějin. V průběhu 20. století byl několikrát zrušen a opětovně obnovován. Data na jeho zadní straně se vážou k významným historickým událostem, ke kterým došlo ve 20. století v Československu a jež měly dopad i na existenci tohoto pomníku. Foto Karel Adamuška. Zdroj: archiv autora"
      ]
    },
    {
      "zadani": {
        "hlavni": "Pomník se nachází ve Valašském Meziříčí a je věnován T. G. Masarykovi. Prohlédněte si přední stranu pomníku.",
        "rozsirujici": ""
      },
      "napoveda": {
        "aktivity": [
          "lupa"
        ],
        "text": "Kliknutím levého tlačítka do obrazu a jeho podržením lupa přiblíží část obrazu ve výřezu."
      },
      "prameny": [
        "netradicni-mezniky-ceskoslovenskych-dejin/pic-06-1024h.jpg"
      ],
      "popisky": [
        "Pomník znázorněný na fotografii je věnován významné osobnosti československých dějin. V průběhu 20. století byl několikrát zrušen a opětovně obnovován. Data na jeho zadní straně se vážou k významným historickým událostem, ke kterým došlo ve 20. století v Československu a jež měly dopad i na existenci tohoto pomníku. Foto Karel Adamuška. Zdroj: archiv autora"
      ]
    },
    {
      "zadani": {
        "hlavni": "Prohlédněte si pozorně nápisy a data uvedené na pomníku.",
        "rozsirujici": ""
      },
      "napoveda": {
        "aktivity": [
          "lupa"
        ],
        "text": "Kliknutím levého tlačítka do obrazu a jeho podržením lupa přiblíží část obrazu ve výřezu."
      },
      "prameny": [
        "netradicni-mezniky-ceskoslovenskych-dejin/pic-05-1024h.jpg"
      ],
      "popisky": [
        "Foto Karel Adamuška. Zdroj: archiv autora"
      ]
    },
    {
      "zadani": {
        "hlavni": "Odpovězte na otázky.",
        "rozsirujici": ""
      },
      "napoveda": {
        "aktivity": [
          "lupa",
          "text"
        ],
        "text": "Do boxu pro text zapisujete odpověď na otázku, nebo jiný komentář (dle zadání)."
      },
      "uzivatelskyText": {
        "galerie": [
          {
            "soubor": "netradicni-mezniky-ceskoslovenskych-dejin/pic-01-1024h.jpg"
          }
        ],
        "otazky": [
          {
            "id": "text-1",
            "zadani": "Při které významné příležitosti byl pomník vztyčen?",
            "instrukce": "1925 - myslím si, že...",
            "minDelka": 0,
            "maxDelka": 400
          },
          {
            "id": "text-2",
            "zadani": "Proč byl podle vás v roce 1940 pomník odstraněn?",
            "instrukce": "1940 - myslím si, že...",
            "minDelka": 0,
            "maxDelka": 400
          }
        ]
      }
    },
    {
      "zadani": {
        "hlavni": "Odpovězte na otázky.",
        "rozsirujici": ""
      },
      "napoveda": {
        "aktivity": [
          "lupa",
          "text"
        ],
        "text": "Do boxu pro text zapisujete odpověď na otázku, nebo jiný komentář (dle zadání)."
      },
      "uzivatelskyText": {
        "galerie": [
          {
            "soubor": "netradicni-mezniky-ceskoslovenskych-dejin/pic-02-1024h.jpg"
          }
        ],
        "otazky": [
          {
            "id": "text-3",
            "zadani": "Co vedlo k obnově pomníku krátce po druhé světové válce?",
            "instrukce": "1946 - myslím si, že...",
            "minDelka": 0,
            "maxDelka": 400
          },
          {
            "id": "text-4",
            "zadani": "Z jakých důvodů se pomník  T. G. Masaryka stal  v padesátých letech nepohodlný?",
            "instrukce": "1950 - myslím si, že...",
            "minDelka": 0,
            "maxDelka": 400
          }
        ]
      }
    },
    {
      "zadani": {
        "hlavni": "Odpovězte na otázky.",
        "rozsirujici": ""
      },
      "napoveda": {
        "aktivity": [
          "lupa",
          "text"
        ],
        "text": "Do boxu pro text zapisujete odpověď na otázku, nebo jiný komentář (dle zadání)."
      },
      "uzivatelskyText": {
        "galerie": [
          {
            "soubor": "netradicni-mezniky-ceskoslovenskych-dejin/pic-03-1024h.jpg"
          }
        ],
        "otazky": [
          {
            "id": "text-5",
            "zadani": "Jaké změny měly dopad na obnovu památníku v roce 1968?",
            "instrukce": "1968 - myslím si, že...",
            "minDelka": 0,
            "maxDelka": 400
          },
          {
            "id": "text-6",
            "zadani": "Jak se změnila situace po roce 1970 a proč byl památník následně zrušen?",
            "instrukce": "1974 - myslím si, že...",
            "minDelka": 0,
            "maxDelka": 400
          }
        ]
      }
    },
    {
      "zadani": {
        "hlavni": "Odpovězte na otázky.",
        "rozsirujici": ""
      },
      "napoveda": {
        "aktivity": [
          "lupa",
          "text"
        ],
        "text": "Do boxu pro text zapisujete odpověď na otázku, nebo jiný komentář (dle zadání)."
      },
      "uzivatelskyText": {
        "galerie": [
          {
            "soubor": "netradicni-mezniky-ceskoslovenskych-dejin/pic-04-1024h.jpg"
          }
        ],
        "otazky": [
          {
            "id": "text-7",
            "zadani": "Proč byla socha T. G. Masaryka v roce 1990 opět obnovena?",
            "instrukce": "1990 - myslím si, že...",
            "minDelka": 0,
            "maxDelka": 400
          },
          {
            "id": "text-8",
            "zadani": "Jak myslíte, že je pomník T. G. Masaryka vnímán dnes?",
            "instrukce": "Myslím si, že...",
            "minDelka": 0,
            "maxDelka": 400
          }
        ]
      }
    },
    {
      "zadani": {
        "hlavni": "Zamyslete se.",
        "rozsirujici": ""
      },
      "napoveda": {
        "aktivity": [
          "lupa",
          "text"
        ],
        "text": "Do boxu pro text zapisujete odpověď na otázku, nebo jiný komentář (dle zadání)."
      },
      "uzivatelskyText": {
        "otazky": [
          {
            "id": "text-9",
            "zadani": "Proč jsou na podstavci pomníku uvedeny jiné mezníky, než známe z učebnic?",
            "instrukce": "Myslím si, že...",
            "minDelka": 0,
            "maxDelka": 400
          }
        ]
      }
    }
  ]
}