{
  "cviceni": {
    "version": {
      "global": "<%= version %>",
      "content": 1
    },
    "katalog": [
      "test"
    ],
    "language": "cs",
    "slug": "co-si-slibovali-od-siciho-stroje",
    "nazev": "Co si slibovali od šicího stroje?",
    "autor": [
      "Václav Sixta"
    ],
    "klicovaSlova": {
      "rvp": [
        "technika"
      ],
      "koncept": [
        "gender"
      ],
      "b4": [
        "trvání a změna"
      ],
      "historylab": [
        "formulujeme a ověřujeme hypotézu"
      ]
    },
    "casovaOsa": {
      "roky": [
        1900
      ],
      "epochy": [
        {
          "nazev": "ceska",
          "obdobi": [
            "habsburská monarchie a její rozpad"
          ]
        },
        {
          "nazev": "svetova",
          "obdobi": [
            "Modernizace Evropy a rozmach koloniálních říší"
          ]
        }
      ]
    },
    "anotace": {
      "ucitel": "Žáci skrze práci s reklamním plakátem a dobovým textem přemýšlejí nad očekáváními, která byla spojována s počátky užívání šicích strojů v domácnosti. V závěrečné aktualizační otázce se pak žáci mohou zamyslet nad tím, kdo a v jakých situacích používá šicí stroj v dnešní době.",
      "verejna": "Znáte někoho, kdo používá šicí stroj? Zjistěte, co si lidé slibovali od šicího stroje v době, kdy se teprve začínal objevovat v domácnostech."
    },
    "trvani": 35,
    "obtiznost": "nízká",
    "funkce": [
      "lupa",
      "cteni",
      "text",
      "svg",
      "znacky",
      "text-editor"
    ],
    "pdf": {
      "doporucenyPostup": "co-si-slibovali-od-siciho-stroje.pdf"
    },
    "uvodniObrazek": "co-si-slibovali-od-siciho-stroje/pic-00-1024h.jpg",
    "id": 100
  },
  "slajd": [
    {
      "zadani": {
        "hlavni": "Prohlédněte si plakát.",
        "rozsirujici": ""
      },
      "napoveda": {
        "aktivity": [
          "lupa"
        ],
        "text": "Při kliknutí levým tlačítkem do obrazu lupa přiblíží část obrazu ve výřezu."
      },
      "prameny": [
        "co-si-slibovali-od-siciho-stroje/pic-00-1024h.jpg"
      ],
      "popisky": [
        "Nejlepší šicí stroj na světě jest Dürkoppův [chromolitografie], kolem 1900. Zdroj: UPM Praha"
      ]
    },
    {
      "class": [
        "half-slide-previous"
      ],
      "zadani": {
        "hlavni": "Jak plakát představuje šicí stroj?",
        "rozsirujici": "Označte důležité body na plakátu a popište je."
      },
      "napoveda": {
        "aktivity": [
          "svg"
        ],
        "text": [
          "Kliknutím na snímek levým tlačítkem myši označujete bod. Nakliknutím na bod pravým tlačítkem otevřete menu s nabídkou úkonů: změnit barvu bodu, (T) doplnit textový komentář, (X) smazat nakliknutý objekt."
        ]
      },
      "svg": {
        "soubory": [
          {
            "id": "svg-1",
            "soubor": "co-si-slibovali-od-siciho-stroje/pic-00-1024h.jpg",
            "funkce": [
              "text",
              "znacky"
            ]
          }
        ]
      },
      "popisky": [
        "Nejlepší šicí stroj na světě jest Dürkoppův [chromolitografie], kolem 1900. Zdroj: UPM Praha"
      ]
    },
    {
      "class": [
        "half-slide-active"
      ],
      "zadani": {
        "hlavni": "Jak plakát představuje šicí stroj?",
        "rozsirujici": "Vyberte na základě plakátu maximálně tři slova, která nejlépe vystihují význam šicího stroje."
      },
      "napoveda": {
        "aktivity": [
          "tagy"
        ],
        "text": "Kliknutím můžete klíčové slovo přidat. Pokud po přidání kliknete na klíčové slovo, znovu ho odeberete."
      },
      "klicovaSlova": {
        "klicovaSlova": [
          {
            "id": "klicova-slova-1",
            "funkce": "selekce+",
            "tagy": [
              {
                "id": 1,
                "text": "bohatství"
              },
              {
                "id": 2,
                "text": "chudoba"
              },
              {
                "id": 3,
                "text": "pohodlí"
              },
              {
                "id": 4,
                "text": "volný čas"
              },
              {
                "id": 5,
                "text": "práce"
              },
              {
                "id": 6,
                "text": "domov"
              },
              {
                "id": 7,
                "text": "stroj pro ženu"
              }
            ]
          }
        ]
      }
    },
    {
      "zadani": {
        "hlavni": "Jak se psalo o šicím stroji?",
        "rozsirujici": "Přečtěte si text a označte žlutě pasáže, které jsou věnovány vlastnostem šicího stroje. Červeně vyznačte pasáže, které označují, komu je stroj určen."
      },
      "napoveda": {
        "aktivity": [
          "text-editor"
        ],
        "text": "Levým tlačítkem myši zabarvíte zvolené slovo nebo slovní spojení. Otevře se vám nabídka, v níž zvolíte označovanou kategorii. Křížkem lze označení smazat."
      },
      "textovyEditor": {
        "nastaveni": {
          "layout": "velka-galerie"
        },
        "galerie": [
          {
            "soubor": "co-si-slibovali-od-siciho-stroje/pic-01-1024h.jpg"
          },
          {
            "soubor": "co-si-slibovali-od-siciho-stroje/pic-02-1280w.jpg"
          }
        ],
        "texty": [
          {
            "id": 1,
            "text": "text-00",
            "funkce": "zvyraznovani",
            "menu": [
              {
                "title": "vlastnost šicího stroje",
                "commandName": "vlastnost",
                "color": "yellow"
              },
              {
                "title": "zákazník",
                "commandName": "zakaznik",
                "color": "red"
              }
            ]
          }
        ]
      },
      "popisky": [
        "Františka Hansgirgová: Hospodyně našeho věku: krátké naučení o vedení městského i venkovského hospodářství, Praha 1874"
      ]
    },
    {
      "zadani": {
        "hlavni": "Odpovězte na otázky.",
        "rozsirujici": ""
      },
      "napoveda": {
        "aktivity": [
          "text"
        ],
        "text": "Do boxu pro text zapisujete odpověď na otázku, nebo jiný komentář (dle zadání)."
      },
      "uzivatelskyText": {
        "layout": "velka-galerie",
        "galerie": [
          {
            "soubor": "co-si-slibovali-od-siciho-stroje/pic-01-1024h.jpg"
          },
          {
            "soubor": "co-si-slibovali-od-siciho-stroje/pic-02-1280w.jpg"
          }
        ],
        "otazky": [
          {
            "id": "otazka-1",
            "zadani": "Co si slibovali od šicího stroje?",
            "instrukce": "Myslím si, že…",
            "minDelka": 0,
            "maxDelka": 400
          },
          {
            "id": "otazka-2",
            "zadani": "Kdo a k čemu podle vás používá šicí stroj dnes?",
            "instrukce": "Šicí stroj používá…",
            "minDelka": 0,
            "maxDelka": 400
          }
        ]
      }
    }
  ]
}