{
  "cviceni": {
    "version": {
      "global": "<%= version %>",
      "content": 3
    },
    "katalog": [
      "public"
    ],
    "language": "cs",
    "slug": "proc-zasedali",
    "nazev": "Proč zasedali?",
    "autor": [
      "Michal Kurz"
    ],
    "klicovaSlova": {
      "rvp": [
        "Československo 70. léta"
      ],
      "koncept": [
        "každodennost"
      ],
      "b4": [
        "dobové perspektivy"
      ],
      "historylab": [
        "formulujeme a ověřujeme hypotézu"
      ]
    },
    "casovaOsa": {
      "roky": [
        1970
      ],
      "epochy": [
        {
          "nazev": "ceska",
          "obdobi": [
            "normalizace"
          ]
        },
        {
          "nazev": "svetova",
          "obdobi": [
            ""
          ]
        }
      ]
    },
    "anotace": {
      "ucitel": "Cvičení pracuje s fotografií pořízenou při odvodu branců základní vojenské služby v Plzni v roce 1970. Žáci označují a popisují jednotlivé prvky na fotografii, formulují hypotézy ohledně významu situace zachycené na snímku a následně je korigují za pomoci textu dobového popisku a dalších fotografií. Cvičení lze využít k doplnění výkladu o životě a fungování československé společnosti v období tzv. normalizace.",
      "verejna": "Kluk v trenýrkách a proti němu přísně se tvářící muži za stolem – co se to ve vyzdobené místnosti děje? Pozorně si prohlédněte fotografii a popište prvky, které vás zaujmou. Dozvíte se víc o situaci, ve které se někdy ocitl každý muž v socialistickém Československu."
    },
    "trvani": 30,
    "obtiznost": "nízká",
    "funkce": [
      "lupa",
      "cteni",
      "text",
      "svg",
      "znacky"
    ],
    "pdf": {
      "doporucenyPostup": "proc-zasedali.pdf"
    },
    "uvodniObrazek": "proc-zasedali/pic-00-1024h.jpg",
    "id": 82
  },
  "slajd": [
    {
      "class": "",
      "zadani": {
        "hlavni": "Prohlédněte si fotografii.",
        "rozsirujici": ""
      },
      "napoveda": {
        "aktivity": [
          "lupa"
        ],
        "text": "Při kliknutí levým tlačítkem do obrazu lupa přiblíží část obrazu ve výřezu."
      },
      "prameny": [
        "proc-zasedali/pic-00-1024h.jpg"
      ],
      "popisky": []
    },
    {
      "class": "half-slide-previous",
      "zadani": {
        "hlavni": "Označte důležité prvky na fotografii a popište je.",
        "rozsirujici": ""
      },
      "napoveda": {
        "aktivity": [
          "svg"
        ],
        "text": "Kliknutím na snímek levým tlačítkem myši označujete bod. Nakliknutím na bod pravým tlačítkem otevřete menu s nabídkou úkonů: (T) doplnit textový komentář, (X) smazat nakliknutý objekt."
      },
      "svg": {
        "nastaveni": {
          "layout": "horizontalni"
        },
        "soubory": [
          {
            "id": "svg-1",
            "soubor": "proc-zasedali/pic-00-1024h.jpg",
            "funkce": [
              "znacky",
              "text"
            ],
            "barvy": [
              "blue"
            ]
          }
        ]
      }
    },
    {
      "class": "half-slide-active",
      "zadani": {
        "hlavni": "Kdo jsou lidé na snímku a co dělají?",
        "rozsirujici": ""
      },
      "napoveda": {
        "aktivity": [
          "text"
        ],
        "text": "Do boxu pro text zapisujete odpověď na otázku, nebo jiný komentář (dle zadání)."
      },
      "uzivatelskyText": {
        "otazky": [
          {
            "id": "text-1",
            "zadani": "",
            "instrukce": "Myslím si, že…",
            "minDelka": 10,
            "maxDelka": 400
          }
        ]
      }
    },
    {
      "class": "half-slide-previous",
      "zadani": {
        "hlavni": "Přečtěte si dobovou popisku a prozkoumejte další prameny. Nově zjištěné informace doplňte do fotografie červeně.",
        "rozsirujici": ""
      },
      "napoveda": {
        "aktivity": [
          "svg"
        ],
        "text": "Tahem myši levým tlačítkem kreslíte do obrazu. Nakliknutím na nakreslený tvar pravým tlačítkem otevřete menu s nabídkou úkonů: změnit barvu tvaru, (T) doplnit textový komentář, (X) smazat nakliknutý objekt."
      },
      "popisky": [
        "„V celé naší republice začaly odvody nových branců narozených roku 1952 i dříve. Také odvodné místnosti v Lidovém domě v Plzni na Karlově žily od 7. října 1970 v ruchu této události. Při zařazování branců k jednotlivým druhům vojsk přihlížejí odvodní komise nejen ke zdravotnímu stavu, ale i k fyzické připravenosti, tělesné zdatnosti a odbornosti v civilním povolání.”  Foto Jiří Vlach, 20. října 1970. Zdroj: ČTK"
      ],
      "svg": {
        "nastaveni": {
          "layout": "velka-galerie"
        },
        "galerie": [
          {
            "typ": "text",
            "objekt": "Základní vojenská služba<br><br>Každý muž v Československu se po dosažení plnoletosti (18 let) stával tzv. brancem a byl povinen nastoupit službu v armádě. V odvodní komisi zasedal obvykle náčelník okresní vojenské správy, vojenský lékař a zástupce okresního národního výboru. Základní vojenská služba trvala standardně 24 měsíců, u studentů vysokých škol byla zkrácena na 12 měsíců. V České republice byla tato povinnost zrušena roku 2004.<br><br>Zdroj: Michal Kurz, historik"
          },
          {
            "soubor": "proc-zasedali/pic-02-1024h.jpg",
            "popisek": "&bdquo;Nezbytné vážení, měření výšky těla, obvodu hrudníku i hlavy a zkoušky krevního tlaku jsou důležitou záležitostí odvodů.&ldquo; Foto Jiří Vlach, 20. října 1970. Zdroj: ČTK"
          },
          {
            "soubor": "proc-zasedali/pic-01-1024h.jpg",
            "popisek": "Foto Jiří Vlach, 20. října 1970. Zdroj: ČTK"
          }
        ],
        "soubory": [
          {
            "id": "svg-2",
            "soubor": "proc-zasedali/pic-00-1024h.jpg",
            "duplikovat": [
              "svg-1"
            ],
            "funkce": [
              "text",
              "znacky"
            ],
            "barvy": [
              "red"
            ]
          }
        ]
      }
    },
    {
      "class": [
        "half-slide-active"
      ],
      "zadani": {
        "hlavni": "Odpovězte na otázky.",
        "rozsirujici": ""
      },
      "napoveda": {
        "aktivity": [
          "text"
        ],
        "text": "Do boxu pro text zapisujete odpověď na otázku, nebo jiný komentář (dle zadání)."
      },
      "uzivatelskyText": {
        "otazky": [
          {
            "id": "text-2",
            "zadani": "Proč komise zasedala?",
            "instrukce": "Myslím si, že…",
            "minDelka": 10,
            "maxDelka": 400
          },
          {
            "id": "text-3",
            "zadani": "Na co byste se lidí na fotografii chtěli zeptat?",
            "instrukce": "Myslím si, že…",
            "minDelka": 10,
            "maxDelka": 400
          }
        ]
      }
    }
  ]
}